…
# apply process_row to each dataset, then combine into a single tibble
results <- results_autoarima %>%
    pmap(process_row) %>%
    bind_rows() %>%
    as_tibble()

# what is the structure of results?
print(results)
```

    ## # A tibble: 6,286 x 10
    ##    id    observed predicted lower_CI upper_CI dataset method args  species
    ##    <chr>    <dbl>     <dbl>    <dbl>    <dbl> <chr>   <chr>  <lis> <fct>  
    ##  1 62       10.5       9.66     8.34     11.0 salmon  arima… <lis… Chinook
    ##  2 62       10.5       9.80     8.45     11.2 salmon  arima… <lis… Chinook
    ##  3 62       11.2       9.87     8.50     11.2 salmon  arima… <lis… Chinook
    ##  4 62       11.2       9.90     8.53     11.3 salmon  arima… <lis… Chinook
    ##  5 62       11.0       9.92     8.54     11.3 salmon  arima… <lis… Chinook
    ##  6 63        8.52      8.63     7.26     10.0 salmon  arima… <lis… Chinook
    ##  7 63        7.88      8.78     7.32     10.2 salmon  arima… <lis… Chinook
    ##  8 63        8.52      8.68     7.09     10.3 salmon  arima… <lis… Chinook
    ##  9 63        8.26      8.68     7.05     10.3 salmon  arima… <lis… Chinook
    ## 10 63        8.32      8.65     6.99     10.3 salmon  arima… <lis… Chinook
    ## # … with 6,276 more rows, and 1 more variable: class <fct>
…
