…
Just as in the “autoarima\_report”, we combine the outputs in each
results object using `bind_rows()`, and wrap this all together using
`purrr::map_dfr()` (and some cleaning of the dataset names):

``` r
full_results <- purrr::map_dfr(mget(results_names), bind_rows) %>%
        mutate(dataset = sub("data_\\.(.+)\\.", "\\1", dataset))

print(full_results)
```

    ## # A tibble: 304 x 5
    ##    results                 metadata   dataset             method  args     
    ##    <list>                  <list>     <chr>               <chr>   <list>   
    ##  1 <data.frame [775 × 5]>  <list [2]> salmon              arima_… <list [1…
    ##  2 <data.frame [1,340 × 5… <list [2]> RAMlegacy_catch     arima_… <list [1…
    ##  3 <data.frame [1,195 × 5… <list [2]> RAMlegacy_ssb       arima_… <list [1…
    ##  4 <data.frame [1,070 × 5… <list [2]> RAMlegacy_recperssb arima_… <list [1…
    ##  5 <data.frame [450 × 5]>  <list [2]> Dorner2008          arima_… <list [1…
    ##  6 <data.frame [1,280 × 5… <list [2]> LPI                 arima_… <list [1…
    ##  7 <data.frame [110 × 5]>  <list [2]> SprSum_Col_Chinook  arima_… <list [1…
    ##  8 <data.frame [110 × 5]>  <list [2]> PugSound_Chinook    arima_… <list [1…
    ##  9 <data.frame [775 × 5]>  <list [2]> salmon              arima_… <list [1…
    ## 10 <data.frame [1,340 × 5… <list [2]> RAMlegacy_catch     arima_… <list [1…
    ## # … with 294 more rows
…
# apply process_row to each dataset, then combine into a single tibble
results <- full_results %>%
    pmap(process_row) %>%
    bind_rows() %>%
    as_tibble()

# what is the structure of results?
print(results)
```

    ## # A tibble: 238,304 x 10
    ##    id    observed predicted lower_CI upper_CI dataset method args  species
    ##    <chr>    <dbl>     <dbl>    <dbl>    <dbl> <chr>   <chr>  <lis> <fct>  
    ##  1 62       10.5       9.66     8.34     11.0 salmon  arima… <lis… Chinook
    ##  2 62       10.5      10.0      8.65     11.4 salmon  arima… <lis… Chinook
    ##  3 62       11.2      10.0      8.65     11.4 salmon  arima… <lis… Chinook
    ##  4 62       11.2      10.0      8.65     11.4 salmon  arima… <lis… Chinook
    ##  5 62       11.0      10.0      8.65     11.4 salmon  arima… <lis… Chinook
    ##  6 63        8.52      8.84     7.32     10.4 salmon  arima… <lis… Chinook
    ##  7 63        7.88      8.61     6.99     10.2 salmon  arima… <lis… Chinook
    ##  8 63        8.52      8.61     6.99     10.2 salmon  arima… <lis… Chinook
    ##  9 63        8.26      8.61     6.99     10.2 salmon  arima… <lis… Chinook
    ## 10 63        8.32      8.61     6.99     10.2 salmon  arima… <lis… Chinook
    ## # … with 238,294 more rows, and 1 more variable: class <fct>
…
